Title,Body,Date,Group
South East Conference 2013,"<p>Lorem ipsum dolor sit amet, consectetur adipiscing elit. Duis quis dignissim massa, ac faucibus lectus. </p>",07/12/2013 10:00,South East Member Group
London Conference 2013,"<p>Nullam placerat eu risus et egestas. Sed hendrerit orci sed ligula posuere eleifend. Integer dignissim justo at nisl congue, non lacinia velit blandit. Cras sodales dolor eu nisl laoreet convallis.</p>",07/08/2013 14:45,London Member Group
South East Meetup,"<p>Nullam placerat eu risus et egestas. Sed hendrerit orci sed ligula posuere eleifend. Integer dignissim justo at nisl congue, non lacinia velit blandit. Cras sodales dolor eu nisl laoreet convallis. </p>",06/12/2013 14:45,South East Member Group
London Meetup,"<p>Nullam placerat eu risus et egestas. Sed hendrerit orci sed ligula posuere eleifend. Integer dignissim justo at nisl congue, non lacinia velit blandit. Cras sodales dolor eu nisl laoreet convallis. Nulla aliquam at mauris ac tincidunt. Integer ac interdum tortor. Duis pretium venenatis nibh accumsan blandit. Integer vel sapien ut turpis commodo feugiat. Phasellus dui augue, semper id nunc et, lacinia tincidunt ipsum. Nunc fringilla ante tortor, eget feugiat enim ornare ut. Suspendisse adipiscing nisi mauris, in volutpat risus elementum gravida. Nullam ac feugiat dolor. Nam in adipiscing nulla, eu pretium sapien. </p>",07/12/2013 14:45,London Member Group
London Association Meeting,"<p>Nullam placerat eu risus et egestas. Sed hendrerit orci sed ligula posuere eleifend. Integer dignissim justo at nisl congue, non lacinia velit blandit. Cras sodales dolor eu nisl laoreet convallis. Nulla aliquam at mauris ac tincidunt. Integer ac interdum tortor. Duis pretium venenatis nibh accumsan blandit. Integer vel sapien ut turpis commodo feugiat. Phasellus dui augue, semper id nunc et, lacinia tincidunt ipsum. Nunc fringilla ante tortor, eget feugiat enim ornare ut. Suspendisse adipiscing nisi mauris, in volutpat risus elementum gravida. Nullam ac feugiat dolor. Nam in adipiscing nulla, eu pretium sapien. </p>",08/08/2013 10:45,London Member Group
